module bitbucket.org/joe_ad87/util

go 1.17

require (
	github.com/gin-gonic/gin v1.7.7
	github.com/go-oauth2/oauth2/v4 v4.4.3
	github.com/golang-jwt/jwt v3.2.2+incompatible
	github.com/google/uuid v1.3.0
	github.com/rs/xid v1.3.0
	github.com/rs/zerolog v1.26.1
	golang.org/x/oauth2 v0.0.0-20220223155221-ee480838109b
	gorm.io/gorm v1.23.2
)

require (
	github.com/gin-contrib/sse v0.1.0 // indirect
	github.com/go-playground/locales v0.13.0 // indirect
	github.com/go-playground/universal-translator v0.17.0 // indirect
	github.com/go-playground/validator/v10 v10.4.1 // indirect
	github.com/golang/protobuf v1.4.2 // indirect
	github.com/jinzhu/inflection v1.0.0 // indirect
	github.com/jinzhu/now v1.1.4 // indirect
	github.com/json-iterator/go v1.1.9 // indirect
	github.com/leodido/go-urn v1.2.0 // indirect
	github.com/mattn/go-isatty v0.0.12 // indirect
	github.com/modern-go/concurrent v0.0.0-20180228061459-e0a39a4cb421 // indirect
	github.com/modern-go/reflect2 v0.0.0-20180701023420-4b7aa43c6742 // indirect
	github.com/ugorji/go/codec v1.1.7 // indirect
	golang.org/x/crypto v0.0.0-20211215165025-cf75a172585e // indirect
	golang.org/x/net v0.0.0-20220127200216-cd36cc0744dd // indirect
	golang.org/x/sys v0.0.0-20211216021012-1d35b9e2eb4e // indirect
	google.golang.org/appengine v1.6.6 // indirect
	google.golang.org/protobuf v1.25.0 // indirect
	gopkg.in/yaml.v2 v2.3.0 // indirect
)
